**** Customer ID 21418 ****
Name = Chapman, Alicia; Store = NULL
Subtotal = $2,181.56; Tax = $174.53; Freight = $54.54; Total = $2,410.63; Freight Percentage 2.26%
Subtotal = $2,478.34; Tax = $198.27; Freight = $61.96; Total = $2,738.57; Freight Percentage 2.26%
**** Customer ID 21134 ****
Name = Chapman, Bob; Store = NULL
Subtotal = $69.97; Tax = $5.60; Freight = $1.75; Total = $77.32; Freight Percentage 2.26%
**** Customer ID 24404 ****
Name = Chapman, Bryant; Store = NULL
Subtotal = $2,384.07; Tax = $190.73; Freight = $59.60; Total = $2,634.40; Freight Percentage 2.26%
**** Customer ID 27534 ****
Name = Chapman, Candace; Store = NULL
Subtotal = $2,071.42; Tax = $165.71; Freight = $51.79; Total = $2,288.92; Freight Percentage 2.26%
**** Customer ID 15254 ****
Name = Chapman, Carla; Store = NULL
Subtotal = $782.99; Tax = $62.64; Freight = $19.57; Total = $865.20; Freight Percentage 2.26%
Subtotal = $841.46; Tax = $67.32; Freight = $21.04; Total = $929.81; Freight Percentage 2.26%
**** Customer ID 21168 ****
Name = Chapman, Clifford; Store = NULL
Subtotal = $2,181.56; Tax = $174.53; Freight = $54.54; Total = $2,410.63; Freight Percentage 2.26%
Subtotal = $2,443.35; Tax = $195.47; Freight = $61.08; Total = $2,699.90; Freight Percentage 2.26%
**** Customer ID 18636 ****
Name = Chapman, Edgar; Store = NULL
Subtotal = $58.98; Tax = $4.72; Freight = $1.47; Total = $65.17; Freight Percentage 2.26%
**** Customer ID 12399 ****
Name = Chapman, Henry; Store = NULL
Subtotal = $58.96; Tax = $4.72; Freight = $1.47; Total = $65.15; Freight Percentage 2.26%
**** Customer ID 22966 ****
Name = Chapman, Jodi; Store = NULL
Subtotal = $2,181.56; Tax = $174.53; Freight = $54.54; Total = $2,410.63; Freight Percentage 2.26%
Subtotal = $1,735.98; Tax = $138.88; Freight = $43.40; Total = $1,918.26; Freight Percentage 2.26%
**** Customer ID 19050 ****
Name = Chapman, Joel; Store = NULL
Subtotal = $56.97; Tax = $4.56; Freight = $1.42; Total = $62.95; Freight Percentage 2.26%
**** Customer ID 12768 ****
Name = Chapman, Johnathan; Store = NULL
Subtotal = $3,578.27; Tax = $286.26; Freight = $89.46; Total = $3,953.99; Freight Percentage 2.26%
Subtotal = $848.47; Tax = $67.88; Freight = $21.21; Total = $937.56; Freight Percentage 2.26%
**** Customer ID 27382 ****
Name = Chapman, Kaitlin; Store = NULL
Subtotal = $36.27; Tax = $2.90; Freight = $0.91; Total = $40.08; Freight Percentage 2.26%
**** Customer ID 26221 ****
Name = Chapman, Kari; Store = NULL
Subtotal = $2,419.06; Tax = $193.52; Freight = $60.48; Total = $2,673.06; Freight Percentage 2.26%
**** Customer ID 11988 ****
Name = Chapman, Kathryn; Store = NULL
Subtotal = $3,374.99; Tax = $270.00; Freight = $84.37; Total = $3,729.36; Freight Percentage 2.26%
Subtotal = $2,309.97; Tax = $184.80; Freight = $57.75; Total = $2,552.52; Freight Percentage 2.26%
Subtotal = $2,393.06; Tax = $191.44; Freight = $59.83; Total = $2,644.33; Freight Percentage 2.26%
**** Customer ID 18144 ****
Name = Chapman, Katie; Store = NULL
Subtotal = $31.97; Tax = $2.56; Freight = $0.80; Total = $35.33; Freight Percentage 2.26%
**** Customer ID 23897 ****
Name = Chapman, Katrina; Store = NULL
Subtotal = $38.98; Tax = $3.12; Freight = $0.97; Total = $43.07; Freight Percentage 2.26%
**** Customer ID 21986 ****
Name = Chapman, Kristi; Store = NULL
Subtotal = $2,181.56; Tax = $174.53; Freight = $54.54; Total = $2,410.63; Freight Percentage 2.26%
Subtotal = $1,700.99; Tax = $136.08; Freight = $42.52; Total = $1,879.59; Freight Percentage 2.26%
**** Customer ID 11276 ****
Name = Chapman, Nancy; Store = NULL
Subtotal = $31.27; Tax = $2.50; Freight = $0.78; Total = $34.55; Freight Percentage 2.26%
Subtotal = $34.99; Tax = $2.80; Freight = $0.87; Total = $38.66; Freight Percentage 2.26%
Subtotal = $29.98; Tax = $2.40; Freight = $0.75; Total = $33.13; Freight Percentage 2.26%
Subtotal = $6.28; Tax = $0.50; Freight = $0.16; Total = $6.94; Freight Percentage 2.26%
Subtotal = $64.97; Tax = $5.20; Freight = $1.62; Total = $71.79; Freight Percentage 2.26%
Subtotal = $7.95; Tax = $0.64; Freight = $0.20; Total = $8.78; Freight Percentage 2.26%
Subtotal = $68.97; Tax = $5.52; Freight = $1.72; Total = $76.21; Freight Percentage 2.26%
Subtotal = $4.99; Tax = $0.40; Freight = $0.12; Total = $5.51; Freight Percentage 2.26%
Subtotal = $36.59; Tax = $2.93; Freight = $0.91; Total = $40.43; Freight Percentage 2.26%
Subtotal = $32.60; Tax = $2.61; Freight = $0.82; Total = $36.02; Freight Percentage 2.26%
Subtotal = $15.23; Tax = $1.22; Freight = $0.38; Total = $16.83; Freight Percentage 2.26%
Subtotal = $32.60; Tax = $2.61; Freight = $0.82; Total = $36.02; Freight Percentage 2.26%
Subtotal = $37.27; Tax = $2.98; Freight = $0.93; Total = $41.18; Freight Percentage 2.26%
Subtotal = $10.24; Tax = $0.82; Freight = $0.26; Total = $11.32; Freight Percentage 2.26%
Subtotal = $74.46; Tax = $5.96; Freight = $1.86; Total = $82.28; Freight Percentage 2.26%
Subtotal = $39.98; Tax = $3.20; Freight = $1.00; Total = $44.18; Freight Percentage 2.26%
Subtotal = $32.60; Tax = $2.61; Freight = $0.82; Total = $36.02; Freight Percentage 2.26%
Subtotal = $39.99; Tax = $3.20; Freight = $1.00; Total = $44.19; Freight Percentage 2.26%
Subtotal = $28.99; Tax = $2.32; Freight = $0.72; Total = $32.03; Freight Percentage 2.26%
Subtotal = $25.48; Tax = $2.04; Freight = $0.64; Total = $28.16; Freight Percentage 2.26%
Subtotal = $53.99; Tax = $4.32; Freight = $1.35; Total = $59.66; Freight Percentage 2.26%
Subtotal = $127.95; Tax = $10.24; Freight = $3.20; Total = $141.38; Freight Percentage 2.26%
Subtotal = $27.28; Tax = $2.18; Freight = $0.68; Total = $30.14; Freight Percentage 2.26%
Subtotal = $60.47; Tax = $4.84; Freight = $1.51; Total = $66.82; Freight Percentage 2.26%
Subtotal = $13.98; Tax = $1.12; Freight = $0.35; Total = $15.45; Freight Percentage 2.26%
Subtotal = $34.99; Tax = $2.80; Freight = $0.87; Total = $38.66; Freight Percentage 2.26%
Subtotal = $14.23; Tax = $1.14; Freight = $0.36; Total = $15.72; Freight Percentage 2.26%
**** Customer ID 27145 ****
Name = Chapman, Pamela; Store = NULL
Subtotal = $35.00; Tax = $2.80; Freight = $0.88; Total = $38.68; Freight Percentage 2.26%
**** Customer ID 12037 ****
Name = Chapman, Patricia; Store = NULL
Subtotal = $3,374.99; Tax = $270.00; Freight = $84.37; Total = $3,729.36; Freight Percentage 2.26%
Subtotal = $1,249.84; Tax = $99.99; Freight = $31.25; Total = $1,381.07; Freight Percentage 2.26%
Subtotal = $2,482.27; Tax = $198.58; Freight = $62.06; Total = $2,742.91; Freight Percentage 2.26%
**** Customer ID 17785 ****
Name = Chapman, Pedro; Store = NULL
Subtotal = $39.98; Tax = $3.20; Freight = $1.00; Total = $44.18; Freight Percentage 2.26%
Subtotal = $27.28; Tax = $2.18; Freight = $0.68; Total = $30.14; Freight Percentage 2.26%
**** Customer ID 23240 ****
Name = Chapman, Phillip; Store = NULL
Subtotal = $69.97; Tax = $5.60; Freight = $1.75; Total = $77.32; Freight Percentage 2.26%
**** Customer ID 18268 ****
Name = Chapman, Preston; Store = NULL
Subtotal = $3,578.27; Tax = $286.26; Freight = $89.46; Total = $3,953.99; Freight Percentage 2.26%
Subtotal = $2,523.92; Tax = $201.91; Freight = $63.10; Total = $2,788.93; Freight Percentage 2.26%
**** Customer ID 12397 ****
Name = Chapman, Shaun; Store = NULL
Subtotal = $2,049.10; Tax = $163.93; Freight = $51.23; Total = $2,264.25; Freight Percentage 2.26%
Subtotal = $2,329.98; Tax = $186.40; Freight = $58.25; Total = $2,574.63; Freight Percentage 2.26%
Subtotal = $588.96; Tax = $47.12; Freight = $14.72; Total = $650.80; Freight Percentage 2.26%
**** Customer ID 28420 ****
Name = Chapman, Tracy; Store = NULL
Subtotal = $3,399.99; Tax = $272.00; Freight = $85.00; Total = $3,756.99; Freight Percentage 2.26%
Subtotal = $1,134.47; Tax = $90.76; Freight = $28.36; Total = $1,253.59; Freight Percentage 2.26%
25
